…
## Example

Let’s say we want to analyze play-by-play data from the Championship
game of the 2017-2018 season between Real Madrid and Fenerbache Dogus
Istanbul. We can obtain the data by entering the game code and the
season to the function `extractPbp()`. The game code for the game can be
found in the game’s
[URL](https://www.euroleague.net/main/results/showgame?gamecode=260&seasoncode=E2017).

``` r
library(eurolig)
pbp <- extractPbp(game_code = 260, season = 2017)
pbp
#> # A tibble: 583 x 29
#>    season game_code play_number team_code player_name play_type
#>     <int>     <dbl>       <int> <chr>     <chr>       <chr>    
#>  1   2017       260           2 <NA>      <NA>        BP       
#>  2   2017       260           3 MAD       AYON, GUST… TPOFF    
#>  3   2017       260           4 ULK       GUDURIC, M… TPOFF    
#>  4   2017       260           5 ULK       DUVERIOGLU… 2FGM     
#>  5   2017       260           6 ULK       GUDURIC, M… AST      
#>  6   2017       260           7 ULK       VESELY, JAN CPF      
#>  7   2017       260           8 MAD       REYES, FEL… RPF      
#>  8   2017       260           9 MAD       AYON, GUST… 2FGA     
#>  9   2017       260          10 MAD       AYON, GUST… ORB      
#> 10   2017       260          11 ULK       GUDURIC, M… CPF      
#> # … with 573 more rows, and 23 more variables: time_remaining <chr>,
#> #   quarter <dbl>, points_home <dbl>, points_away <dbl>, play_info <chr>,
#> #   seconds <dbl>, home_team <chr>, away_team <chr>, home <lgl>,
#> #   team_name <chr>, last_ft <lgl>, and1 <lgl>, home_player1 <chr>,
#> #   home_player2 <chr>, home_player3 <chr>, home_player4 <chr>,
#> #   home_player5 <chr>, away_player1 <chr>, away_player2 <chr>,
#> #   away_player3 <chr>, away_player4 <chr>, away_player5 <chr>,
#> #   lineups <chr>
```
…
